{
  "collectionName": "desc",
  "info": {
    "name": "description",
    "icon": "pen"
  },
  "options": {},
  "attributes": {
    "desc": {
      "type": "richtext"
    },
    "status_note": {
      "model": "status123"
    },
    "desc_en": {
      "type": "richtext"
    }
  }
}
